Something something values disclosure replication
…
$`_boxhead`
# A tibble: 44 x 6
   var                 type    column_label column_align column_width hidden_px
   <chr>               <chr>   <list>       <chr>        <list>       <list>   
 1 variable            hidden  <frm_mrkd>   center       <NULL>       <NULL>   
 2 var_label           hidden  <frm_mrkd>   center       <NULL>       <NULL>   
 3 row_type            hidden  <frm_mrkd>   center       <NULL>       <NULL>   
 4 label               default <frm_mrkd>   left         <NULL>       <NULL>   
 5 var_type_1          hidden  <frm_mrkd>   center       <NULL>       <NULL>   
 6 reference_row_1     hidden  <frm_mrkd>   center       <NULL>       <NULL>   
 7 header_row_1        hidden  <frm_mrkd>   center       <NULL>       <NULL>   
 8 N_obs_1             hidden  <frm_mrkd>   center       <NULL>       <NULL>   
 9 N_1                 hidden  <frm_mrkd>   center       <NULL>       <NULL>   
10 coefficients_type_1 hidden  <frm_mrkd>   center       <NULL>       <NULL>   
# ... with 34 more rows
…
$`_formats`[[31]]$rows
 [1]  1  2  3  4  5  6  7  8  9 10

$`_styles`
# A tibble: 46 x 7
   locname grpname colname         locnum rownum colnum styles    
   <chr>   <chr>   <chr>            <dbl>  <int>  <int> <list>    
 1 data    <NA>    label                5      3     NA <cll_styl>
 2 data    <NA>    label                5      5     NA <cll_styl>
 3 data    <NA>    variable             5      6     NA <cll_styl>
 4 data    <NA>    var_label            5      6     NA <cll_styl>
 5 data    <NA>    row_type             5      6     NA <cll_styl>
 6 data    <NA>    label                5      6     NA <cll_styl>
 7 data    <NA>    var_type_1           5      6     NA <cll_styl>
 8 data    <NA>    reference_row_1      5      6     NA <cll_styl>
 9 data    <NA>    header_row_1         5      6     NA <cll_styl>
10 data    <NA>    N_obs_1              5      6     NA <cll_styl>
# ... with 36 more rows

$`_summary`
list()

$`_options`
# A tibble: 168 x 5
   parameter            scss  category  type     value    
   <chr>                <lgl> <chr>     <chr>    <list>   
 1 container_width      FALSE container px       <chr [1]>
 2 container_height     FALSE container px       <chr [1]>
 3 container_overflow_x FALSE container overflow <chr [1]>
 4 container_overflow_y FALSE container overflow <chr [1]>
 5 table_id             FALSE table     value    <chr [1]>
 6 table_caption        FALSE table     value    <NULL>   
 7 table_width          TRUE  table     px       <chr [1]>
 8 table_layout         TRUE  table     value    <chr [1]>
 9 table_margin_left    TRUE  table     px       <chr [1]>
10 table_margin_right   TRUE  table     px       <chr [1]>
# ... with 158 more rows
…
$`_boxhead`
# A tibble: 104 x 6
   var                 type    column_label column_align column_width hidden_px
   <chr>               <chr>   <list>       <chr>        <list>       <list>   
 1 variable            hidden  <frm_mrkd>   center       <NULL>       <NULL>   
 2 var_label           hidden  <frm_mrkd>   center       <NULL>       <NULL>   
 3 row_type            hidden  <frm_mrkd>   center       <NULL>       <NULL>   
 4 label               default <frm_mrkd>   left         <NULL>       <NULL>   
 5 var_type_1          hidden  <frm_mrkd>   center       <NULL>       <NULL>   
 6 reference_row_1     hidden  <frm_mrkd>   center       <NULL>       <NULL>   
 7 header_row_1        hidden  <frm_mrkd>   center       <NULL>       <NULL>   
 8 N_obs_1             hidden  <frm_mrkd>   center       <NULL>       <NULL>   
 9 N_1                 hidden  <frm_mrkd>   center       <NULL>       <NULL>   
10 coefficients_type_1 hidden  <frm_mrkd>   center       <NULL>       <NULL>   
# ... with 94 more rows
…
$`_formats`[[76]]$rows
 [1]  1  2  3  4  5  6  7  8  9 10 11 12 13 14 15 16

$`_styles`
# A tibble: 107 x 7
   locname grpname colname         locnum rownum colnum styles    
   <chr>   <chr>   <chr>            <dbl>  <int>  <int> <list>    
 1 data    <NA>    label                5      3     NA <cll_styl>
 2 data    <NA>    label                5      5     NA <cll_styl>
 3 data    <NA>    label                5      7     NA <cll_styl>
 4 data    <NA>    variable             5     12     NA <cll_styl>
 5 data    <NA>    var_label            5     12     NA <cll_styl>
 6 data    <NA>    row_type             5     12     NA <cll_styl>
 7 data    <NA>    label                5     12     NA <cll_styl>
 8 data    <NA>    var_type_1           5     12     NA <cll_styl>
 9 data    <NA>    reference_row_1      5     12     NA <cll_styl>
10 data    <NA>    header_row_1         5     12     NA <cll_styl>
# ... with 97 more rows

$`_summary`
list()

$`_options`
# A tibble: 168 x 5
   parameter            scss  category  type     value    
   <chr>                <lgl> <chr>     <chr>    <list>   
 1 container_width      FALSE container px       <chr [1]>
 2 container_height     FALSE container px       <chr [1]>
 3 container_overflow_x FALSE container overflow <chr [1]>
 4 container_overflow_y FALSE container overflow <chr [1]>
 5 table_id             FALSE table     value    <chr [1]>
 6 table_caption        FALSE table     value    <NULL>   
 7 table_width          TRUE  table     px       <chr [1]>
 8 table_layout         TRUE  table     value    <chr [1]>
 9 table_margin_left    TRUE  table     px       <chr [1]>
10 table_margin_right   TRUE  table     px       <chr [1]>
# ... with 158 more rows
…
$`_boxhead`
# A tibble: 64 x 6
   var                 type    column_label column_align column_width hidden_px
   <chr>               <chr>   <list>       <chr>        <list>       <list>   
 1 variable            hidden  <frm_mrkd>   center       <NULL>       <NULL>   
 2 var_label           hidden  <frm_mrkd>   center       <NULL>       <NULL>   
 3 row_type            hidden  <frm_mrkd>   center       <NULL>       <NULL>   
 4 label               default <frm_mrkd>   left         <NULL>       <NULL>   
 5 var_type_1          hidden  <frm_mrkd>   center       <NULL>       <NULL>   
 6 reference_row_1     hidden  <frm_mrkd>   center       <NULL>       <NULL>   
 7 header_row_1        hidden  <frm_mrkd>   center       <NULL>       <NULL>   
 8 N_obs_1             hidden  <frm_mrkd>   center       <NULL>       <NULL>   
 9 N_1                 hidden  <frm_mrkd>   center       <NULL>       <NULL>   
10 coefficients_type_1 hidden  <frm_mrkd>   center       <NULL>       <NULL>   
# ... with 54 more rows
…
$`_formats`[[46]]$rows
 [1]  1  2  3  4  5  6  7  8  9 10 11 12 13 14 15 16

$`_styles`
# A tibble: 67 x 7
   locname grpname colname         locnum rownum colnum styles    
   <chr>   <chr>   <chr>            <dbl>  <int>  <int> <list>    
 1 data    <NA>    label                5      3     NA <cll_styl>
 2 data    <NA>    label                5      5     NA <cll_styl>
 3 data    <NA>    label                5      7     NA <cll_styl>
 4 data    <NA>    variable             5     12     NA <cll_styl>
 5 data    <NA>    var_label            5     12     NA <cll_styl>
 6 data    <NA>    row_type             5     12     NA <cll_styl>
 7 data    <NA>    label                5     12     NA <cll_styl>
 8 data    <NA>    var_type_1           5     12     NA <cll_styl>
 9 data    <NA>    reference_row_1      5     12     NA <cll_styl>
10 data    <NA>    header_row_1         5     12     NA <cll_styl>
# ... with 57 more rows

$`_summary`
list()

$`_options`
# A tibble: 168 x 5
   parameter            scss  category  type     value    
   <chr>                <lgl> <chr>     <chr>    <list>   
 1 container_width      FALSE container px       <chr [1]>
 2 container_height     FALSE container px       <chr [1]>
 3 container_overflow_x FALSE container overflow <chr [1]>
 4 container_overflow_y FALSE container overflow <chr [1]>
 5 table_id             FALSE table     value    <chr [1]>
 6 table_caption        FALSE table     value    <NULL>   
 7 table_width          TRUE  table     px       <chr [1]>
 8 table_layout         TRUE  table     value    <chr [1]>
 9 table_margin_left    TRUE  table     px       <chr [1]>
10 table_margin_right   TRUE  table     px       <chr [1]>
# ... with 158 more rows
…
$`_boxhead`
# A tibble: 64 x 6
   var                 type    column_label column_align column_width hidden_px
   <chr>               <chr>   <list>       <chr>        <list>       <list>   
 1 variable            hidden  <frm_mrkd>   center       <NULL>       <NULL>   
 2 var_label           hidden  <frm_mrkd>   center       <NULL>       <NULL>   
 3 row_type            hidden  <frm_mrkd>   center       <NULL>       <NULL>   
 4 label               default <frm_mrkd>   left         <NULL>       <NULL>   
 5 var_type_1          hidden  <frm_mrkd>   center       <NULL>       <NULL>   
 6 reference_row_1     hidden  <frm_mrkd>   center       <NULL>       <NULL>   
 7 header_row_1        hidden  <frm_mrkd>   center       <NULL>       <NULL>   
 8 N_obs_1             hidden  <frm_mrkd>   center       <NULL>       <NULL>   
 9 N_1                 hidden  <frm_mrkd>   center       <NULL>       <NULL>   
10 coefficients_type_1 hidden  <frm_mrkd>   center       <NULL>       <NULL>   
# ... with 54 more rows
…
$`_formats`[[46]]$rows
 [1]  1  2  3  4  5  6  7  8  9 10 11 12 13 14 15 16

$`_styles`
# A tibble: 67 x 7
   locname grpname colname         locnum rownum colnum styles    
   <chr>   <chr>   <chr>            <dbl>  <int>  <int> <list>    
 1 data    <NA>    label                5      3     NA <cll_styl>
 2 data    <NA>    label                5      5     NA <cll_styl>
 3 data    <NA>    label                5      7     NA <cll_styl>
 4 data    <NA>    variable             5     12     NA <cll_styl>
 5 data    <NA>    var_label            5     12     NA <cll_styl>
 6 data    <NA>    row_type             5     12     NA <cll_styl>
 7 data    <NA>    label                5     12     NA <cll_styl>
 8 data    <NA>    var_type_1           5     12     NA <cll_styl>
 9 data    <NA>    reference_row_1      5     12     NA <cll_styl>
10 data    <NA>    header_row_1         5     12     NA <cll_styl>
# ... with 57 more rows

$`_summary`
list()

$`_options`
# A tibble: 168 x 5
   parameter            scss  category  type     value    
   <chr>                <lgl> <chr>     <chr>    <list>   
 1 container_width      FALSE container px       <chr [1]>
 2 container_height     FALSE container px       <chr [1]>
 3 container_overflow_x FALSE container overflow <chr [1]>
 4 container_overflow_y FALSE container overflow <chr [1]>
 5 table_id             FALSE table     value    <chr [1]>
 6 table_caption        FALSE table     value    <NULL>   
 7 table_width          TRUE  table     px       <chr [1]>
 8 table_layout         TRUE  table     value    <chr [1]>
 9 table_margin_left    TRUE  table     px       <chr [1]>
10 table_margin_right   TRUE  table     px       <chr [1]>
# ... with 158 more rows
…
$`_boxhead`
# A tibble: 84 x 6
   var                 type    column_label column_align column_width hidden_px
   <chr>               <chr>   <list>       <chr>        <list>       <list>   
 1 variable            hidden  <frm_mrkd>   center       <NULL>       <NULL>   
 2 var_label           hidden  <frm_mrkd>   center       <NULL>       <NULL>   
 3 row_type            hidden  <frm_mrkd>   center       <NULL>       <NULL>   
 4 label               default <frm_mrkd>   left         <NULL>       <NULL>   
 5 var_type_1          hidden  <frm_mrkd>   center       <NULL>       <NULL>   
 6 reference_row_1     hidden  <frm_mrkd>   center       <NULL>       <NULL>   
 7 header_row_1        hidden  <frm_mrkd>   center       <NULL>       <NULL>   
 8 N_obs_1             hidden  <frm_mrkd>   center       <NULL>       <NULL>   
 9 N_1                 hidden  <frm_mrkd>   center       <NULL>       <NULL>   
10 coefficients_type_1 hidden  <frm_mrkd>   center       <NULL>       <NULL>   
# ... with 74 more rows
…
$`_formats`[[61]]$rows
 [1]  1  2  3  4  5  6  7  8  9 10 11 12 13 14 15 16

$`_styles`
# A tibble: 87 x 7
   locname grpname colname         locnum rownum colnum styles    
   <chr>   <chr>   <chr>            <dbl>  <int>  <int> <list>    
 1 data    <NA>    label                5      3     NA <cll_styl>
 2 data    <NA>    label                5      5     NA <cll_styl>
 3 data    <NA>    label                5      7     NA <cll_styl>
 4 data    <NA>    variable             5     12     NA <cll_styl>
 5 data    <NA>    var_label            5     12     NA <cll_styl>
 6 data    <NA>    row_type             5     12     NA <cll_styl>
 7 data    <NA>    label                5     12     NA <cll_styl>
 8 data    <NA>    var_type_1           5     12     NA <cll_styl>
 9 data    <NA>    reference_row_1      5     12     NA <cll_styl>
10 data    <NA>    header_row_1         5     12     NA <cll_styl>
# ... with 77 more rows

$`_summary`
list()

$`_options`
# A tibble: 168 x 5
   parameter            scss  category  type     value    
   <chr>                <lgl> <chr>     <chr>    <list>   
 1 container_width      FALSE container px       <chr [1]>
 2 container_height     FALSE container px       <chr [1]>
 3 container_overflow_x FALSE container overflow <chr [1]>
 4 container_overflow_y FALSE container overflow <chr [1]>
 5 table_id             FALSE table     value    <chr [1]>
 6 table_caption        FALSE table     value    <NULL>   
 7 table_width          TRUE  table     px       <chr [1]>
 8 table_layout         TRUE  table     value    <chr [1]>
 9 table_margin_left    TRUE  table     px       <chr [1]>
10 table_margin_right   TRUE  table     px       <chr [1]>
# ... with 158 more rows
…
